[
  {
    "outputFileName": "node_modules/bootstrap/dist/css/bootstrap.min.css",
    "inputFiles": [
      "node_modules/bootstrap/dist/css/bootstrap.css"
    ]
  },
  {
    "outputFileName": "node_modules/bootstrap/dist/js/bootstrap.min.js",
    "inputFiles": [
      "node_modules/bootstrap/dist/js/bootstrap.js"
    ]
  }
]
